@Default 
	[A7:W10007]
		[A]	SEQ_NO	N(15)
		[B]	INVOICE_NO	C(16)* 
		[C]	INVOICE_DATE	D* 
		[D]	TAX_NO	C(25)
		[E]	TAX_DT	D
		[F]	CURRENCY_CD	C(3)* 
		[G]	AMOUNT_TURN_OVER N(18,2)* 
		[H]	AMOUNT_PPN	N(18,2) 
		[I]	AMOUNT_SEAL N(18,2)
		[J]	AMOUNT_CONSUMPTION N(18,2)
		[K]	AMOUNT_MEALS_PAPER N(18,2)
		[L]	AMOUNT_OFFICE_SUPPLIES N(18,2)
		[M]	AMOUNT_TRANSPORT_OPERATIONAL N(18,2)
		[N]	AMOUNT_TRANSPORT_TOLL N(18,2) 
		[O]	AMOUNT_COMMUNICATION N(18,2)
		[P]	AMOUNT_NEWSPAPER N(18,2)
		[Q]	AMOUNT_REPAIR N(18,2)
		[R]	AMOUNT_OTHER N(18,2)
		[S] AMOUNT	N(18,2)
		[T] DESCRIPTION	C(50)* 
		[U] DPP_AMOUNT	N(18,2)
		[V] ACC_INF_ASSIGNMENT	C(18)
		[W] COST_CENTER_CD	C(10)
		
		
		
		
		