@Template 
	[B6:P106]
		[B] INVOICE_NO C(16)*
		[C] INVOICE_DATE D*
		[D] DIVISION_ID C(10)* 
		[E] DIVISION_NAME C
		[F] TAX_NO C(16)
		[G] INVOICE_TAX_DATE D
		[H] TMMIN_INVOICE C(20)
		[I] REMARK C(200)
		[J] CONT_QTY_20 N
		[K] CONT_QTY_40 N
		[L] ITEM_TRANSACTION_CD N*
		[M] ITEM_DESCRIPTION C(100)
		[N] CURRENCY C(3)*
		[O] AMOUNT N*
		[P] TAX_CODE C(2)*